restarting server at time at 02-09-04:20-11
restarting server at time at 02-09-04:21-16
restarting server at time at 02-09-04:21-41
restarting server at time at 02-09-04:22-28
restarting server at time at 02-09-04:31-29
restarting server at time at 02-09-17:00-00
restarting server at time at 02-09-17:00-08
restarting server at time at 02-09-17:00-38
restarting server at time at 02-09-17:01-05
restarting server at time at 02-09-17:01-50
restarting server at time at 02-09-17:01-57
